[
	{"lat": 8.294949, "lng": -62.731711},
	{"lat": 8.293898, "lng": -62.731346},
	{"lat": 8.293213, "lng": -62.731107},
	{"lat": 8.292604, "lng": -62.730896},
	{"lat": 8.291779, "lng": -62.730592},
	{"lat": 8.291139, "lng": -62.730343},
	{"lat": 8.290380, "lng": -62.730048},
	{"lat": 8.289660, "lng": -62.729782},
	{"lat": 8.288668, "lng": -62.729316},
	{"lat": 8.287752, "lng": -62.728637},
	{"lat": 8.287115, "lng": -62.729439},
	{"lat": 8.286706, "lng": -62.730018},
	{"lat": 8.286077, "lng": -62.730896},
	{"lat": 8.285355, "lng": -62.730509},
	{"lat": 8.284437, "lng": -62.729978},
	{"lat": 8.282383, "lng": -62.729748},
	{"lat": 8.280997, "lng": -62.728734},
	{"lat": 8.279829, "lng": -62.727795},
	{"lat": 8.278746, "lng": -62.727189},
	{"lat": 8.277467, "lng": -62.728991},
	{"lat": 8.276464, "lng": -62.730633},
	{"lat": 8.274836, "lng": -62.733297},
	{"lat": 8.273490, "lng": -62.735568},
	{"lat": 8.272157, "lng": -62.737974},
	{"lat": 8.272003, "lng": -62.738049}
]
